{
  "images" : [
    {
      "idiom" : "universal",
      "filename" : "trade_icon_add_20x20_@1x.png",
      "scale" : "1x"
    },
    {
      "idiom" : "universal",
      "filename" : "trade_icon_add_20x20_@2x.png",
      "scale" : "2x"
    },
    {
      "idiom" : "universal",
      "filename" : "trade_icon_add_20x20_@3x.png",
      "scale" : "3x"
    }
  ],
  "info" : {
    "version" : 1,
    "author" : "xcode"
  }
}